[
    ["1Password", "https://1password.com/careers", "https://www.glassdoor.ca/Overview/Working-at-1Password-EI_IE2984143.11,20.htm", ""],
    ["360Learning", "https://jobs.lever.co/360learning", "https://www.glassdoor.ca/Overview/Working-at-360Learning-EI_IE1125261.11,22.html", ""],
    ["8th Light", "https://8thlight.com/careers/", "https://www.glassdoor.ca/Overview/Working-at-8th-Light-EI_IE792337.11,20.html", ""],
    ["Abnormal Security", "https://careers.abnormalsecurity.com/", "https://www.glassdoor.ca/Overview/Working-at-Abnormal-Security-EI_IE3146005.11,28.html", ""],
    ["Accelerant", "https://accelerant.ai/careers/", "https://www.glassdoor.ca/Overview/Working-at-Accelerant-EI_IE4484155.11,21.htmc", ""],
    ["Accenture", "https://www.accenture.com/ca-en/careers", "https://www.glassdoor.ca/Overview/Working-at-Accenture-EI_IE4138.11,20.htm", ""],
    ["Ad Hoc", "https://adhocteam.us/join/", "https://www.glassdoor.ca/Overview/Working-at-Ad-Hoc-DC-EI_IE1508438.11,20.html", ""],
    ["Adasight", "https://www.adasight.com/careers", "", ""],
    ["Affirm", "https://www.affirm.com/careers", "https://www.glassdoor.ca/Overview/Working-at-Affirm-EI_IE823564.11,17.html", ""],
    ["AgencyAnalytics", "https://agencyanalytics.com/company/careers", "https://www.glassdoor.ca/Overview/Working-at-AgencyAnalytics-EI_IE2463249.11,26.htm", ""],
    ["Aha!", "https://www.aha.io/company/careers", "https://www.glassdoor.ca/Overview/Working-at-Aha-EI_IE1102346.11,14.htm", ""],
    ["AppFollow", "https://jobs.lever.co/appfollow", "https://www.glassdoor.ca/Overview/Working-at-AppFollow-EI_IE2461080.11,20.htm", ""],
    ["Arc.dev", "https://arc.dev/careers", "https://www.glassdoor.ca/Overview/Working-at-Arc-EI_IE3622767.11,14.htm", ""],
    ["Array.com", "https://array.com/company/careers", "https://www.glassdoor.ca/Overview/Working-at-Array-NY-EI_IE3721573.11,19.html", ""],
    ["Articulate", "https://www.articulate.com/about/careers/", "https://www.glassdoor.ca/Overview/Working-at-Articulate-Inc-EI_IE702122.11,25.html", ""],
    ["Ashby", "https://www.ashbyhq.com/careers", "https://www.glassdoor.ca/Overview/Working-at-Ashby-EI_IE6016688.11,16.htm", ""],
    ["Astral", "https://astral.sh/about", "", ""],
    ["Aurora Solar", "https://aurorasolar.com/careers/", "https://www.glassdoor.ca/Overview/Working-at-Aurora-Solar-EI_IE1482878.11,23.html", ""],
    ["Automattic", "https://automattic.com/work-with-us/", "https://www.glassdoor.ca/Overview/Working-at-Automattic-EI_IE751107.11,21.htm", ""],
    ["Avalara", "https://careers.avalara.com/north-america", "https://www.glassdoor.ca/Overview/Working-at-Avalara-EI_IE116638.11,18.htm", ""],
    ["Awesome Motive", "https://awesomemotive.com/careers/", "https://www.glassdoor.ca/Overview/Working-at-Awesome-Motive-EI_IE2048106.11,25.htm", ""],
    ["Babylist", "https://www.babylist.com/jobs", "https://www.glassdoor.ca/Overview/Working-at-Babylist-EI_IE1587932.11,19.html", ""],
    ["Basecamp", "https://basecamp.com/remote-resources", "https://www.glassdoor.ca/Overview/Working-at-Basecamp-IL-EI_IE4296436.11,22.html", ""],
    ["Beehiiv", "https://careers.beehiiv.com/en", "https://www.glassdoor.ca/Overview/Working-at-beehiiv-EI_IE7017294.11,18.html", ""],
    ["Beekeeper", "https://www.beekeeper.io/careers/", "https://www.glassdoor.ca/Overview/Working-at-Beekeeper-EI_IE1427524.11,20.html", ""],
    ["Blind", "https://careers.teamblind.com/", "https://www.glassdoor.ca/Overview/Working-at-Blind-EI_IE2058003.11,16.html", ""],
    ["Blockchains", "https://www.blockchains.com/careers/", "https://www.glassdoor.ca/Overview/Working-at-Blockchains-EI_IE1952326.11,22.html", ""],
    ["Bolt", "https://www.bolt.com/careers", "https://www.glassdoor.ca/Overview/Working-at-Bolt-EI_IE1181527.11,15.html", ""],
    ["Brave", "https://brave.com/careers/", "https://www.glassdoor.ca/Overview/Working-at-Brave-EI_IE2159279.11,16.htm", ""],
    ["Buffer", "https://buffer.com/journey", "https://www.glassdoor.ca/Overview/Working-at-Buffer-EI_IE941992.11,17.htm", ""],
    ["Calm.com", "https://www.calm.com/careers", "https://www.glassdoor.ca/Overview/Working-at-Calm-EI_IE1697524.11,15.html", ""],
    ["Canonical", "https://canonical.com/careers", "https://www.glassdoor.ca/Overview/Working-at-Canonical-EI_IE230560.11,20.html", ""],
    ["Chainguard", "https://www.chainguard.dev/careers", "https://www.glassdoor.ca/Overview/Working-at-Chainguard-EI_IE8067937.11,21.html", ""],
    ["Chainlink Labs", "https://chainlinklabs.com/careers", "https://www.glassdoor.ca/Overview/Working-at-Chainlink-Labs-EI_IE4565770.11,25.htm", ""],
    ["Change.org", "https://boards.greenhouse.io/changeorg58", "https://www.glassdoor.ca/Overview/Working-at-Change-org-EI_IE582921.11,21.html", ""],
    ["Chronosphere", "https://chronosphere.io/careers/", "https://www.glassdoor.ca/Overview/Working-at-Chronosphere-EI_IE3190342.11,23.htm", ""],
    ["CircleCI", "https://circleci.com/careers/", "https://www.glassdoor.ca/Overview/Working-at-CircleCI-EI_IE919755.11,19.html", ""],
    ["ClearCompany", "https://www.clearcompany.com/careers/", "https://www.glassdoor.ca/Overview/Working-at-ClearCompany-EI_IE336151.11,23.html", ""],
    ["ClearyX", "https://clearyx.legal/careers/", "", ""],
    ["Climb & Conquer", "https://climbconquer.com/about/", "https://www.glassdoor.ca/Overview/Working-at-Climb-and-Conquer-EI_IE10020733.11,28.htm", ""],
    ["Close.com", "https://www.close.com/careers", "https://www.glassdoor.ca/Overview/Working-at-Close-EI_IE1155591.11,16.html", ""],
    ["Cofense", "https://cofense.com/about/careers", "https://www.glassdoor.ca/Overview/Working-at-Cofense-EI_IE2059011.11,18.htm", ""],
    ["Cengage", "https://www.cengagegroup.com/careers/", "https://www.glassdoor.ca/Overview/Working-at-Cengage-Group-EI_IE20055.11,24.htm", ""],
    ["Commsor", "https://www.linkedin.com/company/commsor/jobs/", "https://www.glassdoor.ca/Overview/Working-at-Commsor-EI_IE7033216.11,18.htm", ""],
    ["Confluent", "https://careers.confluent.io/", "https://www.glassdoor.ca/Overview/Working-at-Confluent-EI_IE1048428.11,20.html", ""],
    ["Contra", "https://contra.com/careers", "", ""],
    ["Course Hero", "https://www.coursehero.com/jobs/", "https://www.glassdoor.ca/Overview/Working-at-Course-Hero-EI_IE361082.11,22.html", ""],
    ["Coursera", "https://careers.coursera.com/", "https://www.glassdoor.ca/Overview/Working-at-Coursera-EI_IE654749.11,19.html", ""],
    ["CrabNebula", "https://crabnebula.dev/careers/", "", ""],
    ["Cribl", "https://cribl.io/careers/", "https://www.glassdoor.ca/Overview/Working-at-Cribl-EI_IE3299657.11,16.html", ""],
    ["Crowdstrike", "https://www.crowdstrike.com/careers/", "https://www.glassdoor.ca/Overview/Working-at-CrowdStrike-EI_IE795976.11,22.html", ""],
    ["Customer.io", "https://customer.io/careers", "https://www.glassdoor.ca/Overview/Working-at-Customer-io-EI_IE1308885.11,22.htm", ""],
    ["Dapper Labs", "https://www.dapperlabs.com/careers", "https://www.glassdoor.ca/Overview/Working-at-Dapper-Labs-EI_IE2360059.11,22.html", ""],
    ["Deel", "https://deel.com/careers", "https://www.glassdoor.ca/Overview/Working-at-Deel-EI_IE3728271.11,15.html", ""],
    ["DeleteMe", "https://joindeleteme.com/careers/", "https://www.glassdoor.ca/Overview/Working-at-DeleteMe-EI_IE8724591.11,19.htm", ""],
    ["Discourse", "https://www.discourse.org/jobs", "https://www.glassdoor.ca/Overview/Working-at-Discourse-EI_IE1165215.11,20.html", ""],
    ["Docker", "https://www.docker.com/careers/", "https://www.glassdoor.ca/Overview/Working-at-Docker-EI_IE1089506.11,17.html", ""],
    ["Doist", "https://doist.com/careers", "https://www.glassdoor.ca/Overview/Working-at-Doist-EI_IE1102553.11,16.html", ""],
    ["Donut Digital", "https://donutdigital.co/careers", "https://www.glassdoor.ca/Overview/Working-at-Donut-Digital-EI_IE8249272.11,24.htma", ""],
    ["Drift", "https://www.drift.com/about/careers/", "https://www.glassdoor.ca/Overview/Working-at-Drift-EI_IE1145026.11,16.html", ""],
    ["DuckDuckGo", "https://duckduckgo.com/hiring", "https://www.glassdoor.ca/Overview/Working-at-DuckDuckGo-EI_IE1086167.11,21.html", ""],
    ["Edera", "https://edera.dev/", "", ""],
    ["Ed2Go (Cengage Group)", "https://www.cengagegroup.com/careers/", "https://www.glassdoor.ca/Overview/Working-at-Cengage-Group-EI_IE20055.11,24.htm", ""],
    ["eHealth", "https://www.ehealthinsurance.com/about-ehealth/careers-benefit/", "https://www.glassdoor.ca/Overview/Working-at-eHealth-EI_IE40995.11,18.htm", ""],
    ["Elastic", "https://www.elastic.co/careers", "https://www.glassdoor.ca/Overview/Working-at-Elastic-EI_IE751551.11,18.htm", ""],
    ["Elevate Labs", "https://jobs.lever.co/elevatelabs", "https://www.glassdoor.ca/Overview/Working-at-Elevate-Labs-EI_IE1929250.11,23.html", ""],
    ["EverTrue", "https://www.evertrue.com/careers/", "https://www.glassdoor.ca/Overview/Working-at-EverTrue-EI_IE912666.11,19.htm", ""],
    ["Fireflies", "https://fireflies.freshteam.com/jobs", "https://www.glassdoor.ca/Overview/Working-at-Fireflies-CA-EI_IE2304798.11,23.htm", ""],
    ["Fleetio", "https://www.fleetio.com/careers", "https://www.glassdoor.ca/Overview/Working-at-Fleetio-EI_IE1745407.11,18.htm", ""],
    ["FlexPay", "https://flexpay.io/careers/", "https://www.glassdoor.ca/Overview/Working-at-FlexPay-EI_IE1356421.11,18.htm", ""],
    ["Flickr", "https://www.flickr.com/jobs", "https://www.glassdoor.ca/Overview/Working-at-SmugMug-EI_IE481615.11,18.html", ""],
    ["Flipboard", "https://about.flipboard.com/careers/", "https://www.glassdoor.ca/Overview/Working-at-Flipboard-EI_IE393688.11,20.htm", ""],
    ["Flipp", "https://corp.flipp.com/careers/#career-page", "https://www.glassdoor.ca/Overview/Working-at-Flipp-EI_IE970799.11,16.htm", ""],
    ["Float", "https://www.float.com/careers", "https://www.glassdoor.ca/Overview/Working-at-Float-EI_IE2055330.11,16.htm", ""],
    ["Fly.io", "https://fly.io/jobs/", "https://www.glassdoor.ca/Overview/Working-at-Fly-io-EI_IE7001341.11,17.html", ""],
    ["Foodee", "https://www.food.ee/careers/", "https://www.glassdoor.ca/Overview/Working-at-Foodee-EI_IE1283270.11,17.htm", ""],
    ["Fresh Tri", "https://freshtri.com/careers/", "https://www.glassdoor.ca/Overview/Working-at-Fresh-Tri-EI_IE6494732.11,20.htm", ""],
    ["Function Health", "https://function-health.breezy.hr/", "https://www.glassdoor.ca/Overview/Working-at-Function-Health-EI_IE9638864.11,26.html", ""],
    ["Gale (Cengage Group)", "https://www.cengagegroup.com/careers/", "https://www.glassdoor.ca/Overview/Working-at-Cengage-Group-EI_IE20055.11,24.htm", ""],
    ["Gather", "https://boards.greenhouse.io/gather", "https://www.glassdoor.ca/Salary/Gather-Salaries-E4464046.html", ""],
    ["GitBook", "https://www.gitbook.com/about#open-roles", "https://www.glassdoor.ca/Overview/Working-at-GitBook-EI_IE1701884.11,18.html", ""],
    ["GitHub", "https://www.github.careers/careers-home", "https://www.glassdoor.ca/Overview/Working-at-GitHub-EI_IE671945.11,17.html", ""],
    ["GitLab", "https://about.gitlab.com/jobs/", "https://www.glassdoor.ca/Overview/Working-at-GitLab-EI_IE1296544.11,17.html", ""],
    ["Glassdoor", "https://www.glassdoor.ca/Jobs/Glassdoor-Jobs-E100431.htm", "https://www.glassdoor.ca/glassdoor", ""],
    ["GoGlobal", "https://www.goglobal-consulting.com/careers/", "https://www.glassdoor.ca/Overview/Working-at-Go-Global-Argentina-EI_IE5857937.11,30.htm", ""],
    ["GoGuardian", "https://www.goguardian.com/careers", "https://www.glassdoor.ca/Overview/Working-at-GoGuardian-EI_IE1065069.11,21.html", ""],
    ["Gradle", "https://gradle.com/careers/", "https://www.glassdoor.ca/Overview/Working-at-Gradle-Inc-EI_IE3007587.11,21.html", ""],
    ["Gruntwork", "https://www.gruntwork.io/careers/", "https://www.glassdoor.ca/Overview/Working-at-Gruntwork-io-EI_IE4151546.11,23.html", ""],
    ["Guideline, Inc.", "https://job-boards.greenhouse.io/guideline", "https://www.glassdoor.ca/Overview/Working-at-Guideline-EI_IE1266751.11,20.html", ""],
    ["Hackmamba", "https://hackmamba.io/career/", "", ""],
    ["Heeler", "https://www.heeler.com", "", ""],
    ["Help Scout", "https://www.helpscout.com/company/careers/", "https://www.glassdoor.ca/Overview/Working-at-Help-Scout-EI_IE1138231.11,21.htm", ""],
    ["hims & hers", "https://boards.greenhouse.io/himshers", "https://www.glassdoor.ca/Overview/Working-at-hims-and-hers-EI_IE2090877.11,24.html", ""],
    ["Honeycomb.io", "https://www.honeycomb.io/careers", "https://www.glassdoor.ca/Overview/Working-at-Honeycomb-EI_IE3970329.11,20.html", ""],
    ["Hotjar", "https://contentsquare.com/careers/", "https://www.glassdoor.ca/Overview/Working-at-Hotjar-EI_IE1494810.11,17.htm", ""],
    ["Huntress", "https://www.huntress.com/company/careers", "https://www.glassdoor.ca/Overview/Working-at-Huntress-EI_IE4474883.11,19.htm", ""],
    ["Imply", "https://imply.io/careers/", "https://www.glassdoor.ca/Overview/Working-at-Imply-EI_IE1957550.11,16.html", ""],
    ["Incubyte", "https://www.incubyte.co/careers", "https://www.glassdoor.ca/Overview/Working-at-Incubyte-EI_IE3844202.11,19.htmc", ""],
    ["Infosec Institute", "https://www.infosecinstitute.com/careers/", "https://www.glassdoor.ca/Overview/Working-at-InfoSec-Institute-EI_IE8580549.11,28.htm", ""],
    ["Kraken", "https://www.kraken.com/careers", "https://www.glassdoor.ca/Overview/Working-at-Kraken-Digital-Asset-Exchange-EI_IE938667.11,40.html", ""],
    ["Kit (formerly ConvertKit)", "https://kit.com/careers", "https://www.glassdoor.ca/Overview/Working-at-Kit-EI_IE1018963.11,14.htm", ""],
    ["Legl", "https://legl.com/careers", "https://www.glassdoor.ca/Overview/Working-at-Legl-EI_IE3048196.11,15.htm", ""],
    ["Level Access", "https://www.levelaccess.com/careers/", "https://www.glassdoor.ca/Overview/Working-at-Level-Access-EI_IE470250.11,23.htm", ""],
    ["Lighthouse", "https://www.lighthouseglobal.com/careers", "https://www.glassdoor.ca/Overview/Working-at-Lighthouse-EI_IE630087.11,21.htm", ""],
    ["Lumenalta (formerly Clevertech)", "https://lumenalta.com/remote-jobs", "https://www.glassdoor.ca/Overview/Working-at-Lumenalta-EI_IE781853.11,20.html", ""],
    ["Lyssna", "https://www.lyssna.com/careers/", "", ""],
    ["Mantra Health", "https://job-boards.greenhouse.io/mantrahealth", "https://www.glassdoor.ca/Overview/Working-at-Mantra-Health-EI_IE3250713.11,24.htm", ""],
    ["Mark43", "https://mark43.com/careers/", "https://www.glassdoor.ca/Overview/Working-at-Mark43-EI_IE1096288.11,17.html", ""],
    ["Medallion.co", "https://medallion.co/about-medallion/careers", "https://www.glassdoor.ca/Overview/Working-at-Medallion-EI_IE6694396.11,20.html", ""],
    ["Medium", "https://medium.com/jobs-at-medium/work-at-medium-959d1a85284e", "https://www.glassdoor.ca/Overview/Working-at-Medium-EI_IE784883.11,17.html", ""],
    ["Metaschool", "https://metaschool.so/careers", "https://www.glassdoor.ca/Overview/Working-at-Metaschool-EI_IE8168127.11,21.htmc", ""],
    ["Milady (Cengage Group)", "https://www.cengagegroup.com/careers/", "https://www.glassdoor.ca/Overview/Working-at-Cengage-Group-EI_IE20055.11,24.htm", ""],
    ["Modern Tribe", "https://tri.be/careers/", "https://www.glassdoor.ca/Overview/Working-at-Modern-Tribe-EI_IE743528.11,23.htm", ""],
    ["Muck Rack", "https://muckrack.com/", "https://www.glassdoor.ca/Overview/Working-at-Muck-Rack-EI_IE2416246.11,20.htm", ""],
    ["MURAL", "https://www.mural.co/careers", "https://www.glassdoor.ca/Overview/Working-at-Mural-EI_IE2034974.11,16.html", ""],
    ["Muse", "https://choosemuse.com/pages/careers", "", ""],
    ["Nathan James", "https://nathanjames.com/blogs/careers", "https://www.glassdoor.ca/Overview/Working-at-Nathan-James-EI_IE2394685.11,23.htm", ""],
    ["National Geographic Learning (Cengage Group)", "https://www.cengagegroup.com/careers/", "https://www.glassdoor.ca/Overview/Working-at-Cengage-Group-EI_IE20055.11,24.htm", ""],
    ["Nava", "https://www.navapbc.com/open-roles", "https://www.glassdoor.ca/Overview/Working-at-Nava-EI_IE1193262.11,15.htm", ""],
    ["Notabene.id", "https://notabene.id/careers", "https://www.glassdoor.ca/Overview/Working-at-Notabene-EI_IE5592921.11,19.htm", ""],
    ["Olo", "https://www.olo.com/people-culture#careers-listings", "https://www.glassdoor.ca/Overview/Working-at-Olo-EI_IE1000570.11,14.htm", ""],
    ["Omnipresent", "https://www.omnipresent.com/careers", "https://www.glassdoor.ca/Overview/Working-at-Omnipresent-EI_IE289172.11,22.html", ""],
    ["Onebrief", "https://jobs.ashbyhq.com/onebrief", "https://www.glassdoor.ca/Overview/Working-at-Onebrief-EI_IE4302037.11,19.htm", ""],
    ["OnTheGoSystems", "https://onthegosystems.com/jobs/", "https://www.glassdoor.ca/Overview/Working-at-OnTheGoSystems-EI_IE1191214.11,25.htm", ""],
    ["Outschool", "https://outschool.com/careers", "https://www.glassdoor.ca/Overview/Working-at-Outschool-EI_IE1311528.11,20.html", ""],
    ["OysterHR", "https://www.oysterhr.com/careers", "https://www.glassdoor.ca/Overview/Working-at-Oyster-EI_IE5006547.11,17.html", ""],
    ["Paddle", "https://www.paddle.com/careers", "https://www.glassdoor.ca/Overview/Working-at-Paddle-EI_IE988509.11,17.htm", ""],
    ["Paymentology", "https://www.paymentology.com/about-us/careers", "https://www.glassdoor.ca/Overview/Working-at-Paymentology-EI_IE2187434.11,23.htm", ""],
    ["Pomelo Care", "https://www.pomelocare.com/careers", "https://www.glassdoor.ca/Overview/Working-at-Pomelo-Care-EI_IE9429297.11,22.htm", ""],
    ["PowerPlay", "https://powerplay.com/ontario/careers/", "https://www.glassdoor.ca/Overview/Working-at-PowerPlay-EI_IE2476694.11,20.htm", ""],
    ["PQShield", "https://pqshield.com/careers/", "https://www.glassdoor.ca/Overview/Working-at-PQShield-EI_IE7425048.11,19.html", ""],
    ["Provision IAM", "https://provisioniam.recruitee.com/", "https://www.glassdoor.ca/Overview/Working-at-Provision-IAM-EI_IE8844322.11,24.html", ""],
    ["ReCharge Payments", "https://getrecharge.com/careers/", "https://www.glassdoor.ca/Overview/Working-at-Recharge-Payments-EI_IE1961411.11,28.htm", ""],
    ["Redpanda", "https://redpanda.com/", "https://www.glassdoor.ca/Overview/Working-at-Red-Panda-EI_IE1023004.11,20.html", ""],
    ["Regrow", "https://www.regrow.ag/careers", "https://www.glassdoor.ca/Overview/Working-at-%E2%80%8DRegrow-EI_IE5652604.11,18.html", ""],
    ["Remofirst", "https://www.remofirst.com/careers", "https://www.glassdoor.ca/Overview/Working-at-Remofirst-EI_IE7443294.11,20.html", ""],
    ["Remote.com", "https://remote.com/careers", "https://www.glassdoor.ca/Overview/Working-at-Remote-EI_IE3871683.11,17.html", ""],
    ["RenoFi", "https://www.renofi.com/careers/", "https://www.glassdoor.ca/Overview/Working-at-RenoFi-EI_IE4917215.11,17.html", ""],
    ["Revolute", "https://www.revolut.com/careers/", "https://www.glassdoor.ca/Overview/Working-at-Revolut-EI_IE1176471.11,18.htm", ""],
    ["Roots of Impact", "https://www.roots-of-impact.org/talents/", "https://www.glassdoor.ca/Overview/Working-at-Roots-of-Impact-EI_IE4096689.11,26.htm", ""],
    ["Rula", "https://www.rula.com/careers/", "https://www.glassdoor.ca/Overview/Working-at-Rula-EI_IE4563452.11,15.htm", ""],
    ["SafetyWing", "https://safetywing.com/join-us", "https://www.glassdoor.ca/Overview/Working-at-SafetyWing-EI_IE4439251.11,21.htm", ""],
    ["Salute Loans", "https://saluteloans.com/careers/", "", ""],
    ["ScorePlay", "https://www.scoreplay.io/careers", "https://www.glassdoor.ca/Overview/Working-at-ScorePlay-EI_IE9666010.11,20.htm", ""],
    ["Secureframe", "https://secureframe.com/careers", "https://www.glassdoor.ca/Overview/Working-at-Secureframe-EI_IE3427807.11,22.html", ""],
    ["Shogun", "https://getshogun.com/careers", "https://www.glassdoor.ca/Overview/Working-at-Shogun-EI_IE2451916.11,17.htm", ""],
    ["Shopify", "https://www.shopify.com/careers", "https://www.glassdoor.ca/Overview/Working-at-Shopify-EI_IE675933.11,18.html", ""],
    ["Siege Media", "https://www.siegemedia.com/careers", "https://www.glassdoor.ca/Overview/Working-at-Siege-Media-EI_IE1534245.11,22.htm", ""],
    ["SmugMug", "https://www.smugmug.com/careers", "https://www.glassdoor.ca/Overview/Working-at-SmugMug-EI_IE481615.11,18.html", ""],
    ["Sophos", "https://www.sophos.com/en-us/careers", "https://www.glassdoor.ca/Overview/Working-at-Sophos-EI_IE15421.11,17.html", ""],
    ["Sourcegraph", "https://sourcegraph.com/jobs", "https://www.glassdoor.ca/Overview/Working-at-Sourcegraph-EI_IE1356770.11,22.html", ""],
    ["Sticker Mule", "https://www.stickermule.com/ca/careers", "https://www.glassdoor.ca/Overview/Working-at-Sticker-Mule-EI_IE826373.11,23.htm", ""],
    ["Storyblok", "https://www.storyblok.com/jobs", "https://www.glassdoor.ca/Overview/Working-at-Storyblok-EI_IE4523274.11,20.htm", ""],
    ["Stripe", "https://stripe.com/en-ca/jobs", "https://www.glassdoor.ca/Overview/Working-at-Stripe-EI_IE671932.11,17.htm", ""],
    ["StrongDM", "https://www.strongdm.com/careers", "https://www.glassdoor.ca/Overview/Working-at-strongDM-EI_IE4514684.11,19.html", ""],
    ["Tailscale", "https://tailscale.com/careers", "https://www.glassdoor.ca/Overview/Working-at-Tailscale-EI_IE6841860.11,20.html", ""],
    ["TaxJar", "https://stripe.com/en-ca/jobs", "https://www.glassdoor.ca/Overview/Working-at-TaxJar-EI_IE1450050.11,17.htm", ""],
    ["TeamSnap", "https://www.teamsnap.com/company/careers", "https://www.glassdoor.ca/Overview/Working-at-TeamSnap-EI_IE836552.11,19.html", ""],
    ["TestGorilla", "https://www.testgorilla.com/careers/", "https://www.glassdoor.ca/Overview/Working-at-TestGorilla-EI_IE5216975.11,22.htm", ""],
    ["Toggl", "https://toggl.com/jobs/", "https://www.glassdoor.ca/Overview/Working-at-Toggl-EI_IE734060.11,16.htm", ""],
    ["Tomedes", "https://www.tomedes.com/careers", "https://www.glassdoor.ca/Overview/Working-at-Tomedes-EI_IE2323028.11,18.htm", ""],
    ["Toptal", "https://www.toptal.com/careers", "https://www.glassdoor.ca/Overview/Working-at-Toptal-EI_IE882070.11,17.htm", ""],
    ["Trail of Bits", "https://www.trailofbits.com/careers/", "https://www.glassdoor.ca/Overview/Working-at-Trail-of-Bits-EI_IE2463188.11,24.htm", ""],
    ["TrueCar", "https://www.truecar.com/careers/", "https://www.glassdoor.ca/Overview/Working-at-TrueCar-EI_IE353868.11,18.html", ""],
    ["Unqork", "https://www.unqork.com/careers/", "https://www.glassdoor.ca/Overview/Working-at-Unqork-EI_IE2100426.11,17.html", ""],
    ["Upwork", "https://www.upwork.com/careers", "https://www.glassdoor.ca/Overview/Working-at-Upwork-EI_IE993959.11,17.html", ""],
    ["User Interviews", "https://boards.greenhouse.io/userinterviews", "https://www.glassdoor.ca/Overview/Working-at-User-Interviews-EI_IE2312809.11,26.html", ""],
    ["Vanta", "https://www.vanta.com/company/careers", "https://www.glassdoor.ca/Overview/Working-at-Vanta-EI_IE3971334.11,16.html", ""],
    ["Vantage Point Consulting", "https://apply.workable.com/vantagepointconsult/?lng=en", "https://www.glassdoor.ca/Overview/Working-at-Vantage-Point-Consulting-TX-EI_IE2480594.11,38.htm", ""],
    ["Velaro", "https://www.linkedin.com/company/velaro/jobs/", "https://www.glassdoor.ca/Overview/Working-at-Velaro-EI_IE909056.11,17.htm", ""],
    ["Vio.com", "https://www.vio.com/careers", "https://www.glassdoor.ca/Overview/Working-at-Vio-com-EI_IE940798.11,18.htm", ""],
    ["Vista", "https://careers.vista.com/", "https://www.glassdoor.ca/Overview/Working-at-Vista-EI_IE21719.11,16.html", ""],
    ["Webomates Inc", "https://www.webomates.com/careers/", "https://www.glassdoor.ca/Overview/Working-at-Webomates-EI_IE3170444.11,20.htm", ""],
    ["Wildlight Entertainment", "https://www.wildlight.gg/join-us", "", ""],
    ["WolfSSL", "https://www.wolfssl.com/", "https://www.glassdoor.ca/Overview/Working-at-wolfSSL-EI_IE1001795.11,18.html", ""],
    ["YouGov", "https://jobs.yougov.com/", "https://www.glassdoor.ca/Overview/Working-at-YouGov-EI_IE518089.11,17.htm", ""],
    ["Zapier", "https://zapier.com/jobs", "https://www.glassdoor.ca/Overview/Working-at-Zapier-EI_IE1196705.11,17.htm", ""],
    ["Zayo", "https://www.zayo.com/careers/", "https://www.glassdoor.ca/Overview/Working-at-Zayo-EI_IE235326.11,15.htm", ""]
]
